<svg width="125" height="42" viewBox="0 0 125 42" fill="none" xmlns="http://www.w3.org/2000/svg">
<rect x="1" y="0.5" width="123" height="41" rx="19.5" stroke="white"/>
<g clip-path="url(#clip0_3_136)">
<path d="M26.1665 17.6666C25.5455 17.6569 24.946 17.8943 24.4999 18.3266C24.1569 18.0064 23.7269 17.7947 23.2639 17.7184C22.8009 17.642 22.3257 17.7043 21.898 17.8975C21.4704 18.0906 21.1094 18.406 20.8607 18.8038C20.6119 19.2017 20.4863 19.6642 20.4999 20.1333C20.4999 22.3039 23.7492 24.6239 24.1199 24.8806C24.2315 24.958 24.364 24.9995 24.4999 24.9995C24.6357 24.9995 24.7683 24.958 24.8799 24.8806C25.2505 24.6239 28.4999 22.3039 28.4999 20.1333C28.5164 19.4971 28.2801 18.8803 27.8427 18.4179C27.4054 17.9556 26.8027 17.6854 26.1665 17.6666ZM24.4999 23.5079C23.3392 22.6213 21.8332 21.1346 21.8332 20.1333C21.7825 18.7959 23.7752 18.5333 23.8332 19.9693V20.3333C23.8332 20.5101 23.9034 20.6797 24.0285 20.8047C24.1535 20.9297 24.3231 20.9999 24.4999 20.9999C24.6767 20.9999 24.8462 20.9297 24.9713 20.8047C25.0963 20.6797 25.1665 20.5101 25.1665 20.3333V19.9693C25.2245 18.5346 27.2172 18.7959 27.1665 20.1333C27.1665 21.1333 25.6605 22.6213 24.4999 23.5079ZM25.0572 13.0186C23.9144 12.9387 22.7677 13.1053 21.6948 13.5069C20.6219 13.9086 19.6477 14.536 18.8383 15.3467C18.0288 16.1574 17.4029 17.1325 17.0029 18.2061C16.603 19.2796 16.4382 20.4266 16.5199 21.5693C16.8132 25.8053 20.5545 28.9999 25.2219 28.9999H29.1665C30.0503 28.9989 30.8975 28.6474 31.5224 28.0225C32.1473 27.3976 32.4988 26.5503 32.4999 25.6666V21.2266C32.5246 19.1716 31.7711 17.1833 30.3906 15.6609C29.0101 14.1384 27.1048 13.1945 25.0572 13.0186ZM31.1665 25.6666C31.1665 26.197 30.9558 26.7058 30.5807 27.0808C30.2057 27.4559 29.697 27.6666 29.1665 27.6666H25.2219C21.1992 27.6666 18.0999 25.0666 17.8499 21.4773C17.7814 20.5246 17.9185 19.5684 18.2518 18.6733C18.585 17.7782 19.1068 16.9652 19.7816 16.2893C20.4564 15.6134 21.2686 15.0903 22.1632 14.7556C23.0577 14.4209 24.0138 14.2823 24.9665 14.3493C26.6775 14.5006 28.2678 15.2939 29.4179 16.5696C30.568 17.8454 31.1928 19.5092 31.1665 21.2266V25.6666Z" fill="white"/>
</g>
<path d="M50.492 27.24C49.34 27.24 48.3533 26.9893 47.532 26.488C46.7107 25.9813 46.0787 25.2773 45.636 24.376C45.1987 23.4747 44.98 22.4293 44.98 21.24C44.98 20.0507 45.1987 19.0053 45.636 18.104C46.0787 17.2027 46.7107 16.5013 47.532 16C48.3533 15.4933 49.34 15.24 50.492 15.24C51.82 15.24 52.9267 15.5733 53.812 16.24C54.6973 16.9013 55.3187 17.7947 55.676 18.92L53.732 19.456C53.508 18.704 53.1267 18.1173 52.588 17.696C52.0493 17.2693 51.3507 17.056 50.492 17.056C49.7187 17.056 49.0733 17.2293 48.556 17.576C48.044 17.9227 47.6573 18.4107 47.396 19.04C47.14 19.664 47.0093 20.3973 47.004 21.24C47.004 22.0827 47.132 22.8187 47.388 23.448C47.6493 24.072 48.0387 24.5573 48.556 24.904C49.0733 25.2507 49.7187 25.424 50.492 25.424C51.3507 25.424 52.0493 25.2107 52.588 24.784C53.1267 24.3573 53.508 23.7707 53.732 23.024L55.676 23.56C55.3187 24.6853 54.6973 25.5813 53.812 26.248C52.9267 26.9093 51.82 27.24 50.492 27.24ZM61.2485 27.24C60.3845 27.24 59.6298 27.0453 58.9845 26.656C58.3392 26.2667 57.8378 25.7307 57.4805 25.048C57.1285 24.36 56.9525 23.5707 56.9525 22.68C56.9525 21.7733 57.1338 20.9787 57.4965 20.296C57.8592 19.6133 58.3632 19.08 59.0085 18.696C59.6538 18.312 60.4005 18.12 61.2485 18.12C62.1178 18.12 62.8752 18.3147 63.5205 18.704C64.1658 19.0933 64.6672 19.632 65.0245 20.32C65.3818 21.0027 65.5605 21.7893 65.5605 22.68C65.5605 23.576 65.3792 24.368 65.0165 25.056C64.6592 25.7387 64.1578 26.2747 63.5125 26.664C62.8672 27.048 62.1125 27.24 61.2485 27.24ZM61.2485 25.432C62.0165 25.432 62.5872 25.176 62.9605 24.664C63.3338 24.152 63.5205 23.4907 63.5205 22.68C63.5205 21.8427 63.3312 21.176 62.9525 20.68C62.5738 20.1787 62.0058 19.928 61.2485 19.928C60.7312 19.928 60.3045 20.0453 59.9685 20.28C59.6378 20.5093 59.3925 20.832 59.2325 21.248C59.0725 21.6587 58.9925 22.136 58.9925 22.68C58.9925 23.5173 59.1818 24.1867 59.5605 24.688C59.9445 25.184 60.5072 25.432 61.2485 25.432ZM73.2991 27V22.84C73.2991 22.568 73.2805 22.2667 73.2431 21.936C73.2058 21.6053 73.1178 21.288 72.9791 20.984C72.8458 20.6747 72.6431 20.4213 72.3711 20.224C72.1045 20.0267 71.7418 19.928 71.2831 19.928C71.0378 19.928 70.7951 19.968 70.5551 20.048C70.3151 20.128 70.0965 20.2667 69.8991 20.464C69.7071 20.656 69.5525 20.9227 69.4351 21.264C69.3178 21.6 69.2591 22.032 69.2591 22.56L68.1151 22.072C68.1151 21.336 68.2565 20.6693 68.5391 20.072C68.8271 19.4747 69.2485 19 69.8031 18.648C70.3578 18.2907 71.0405 18.112 71.8511 18.112C72.4911 18.112 73.0191 18.2187 73.4351 18.432C73.8511 18.6453 74.1818 18.9173 74.4271 19.248C74.6725 19.5787 74.8538 19.9307 74.9711 20.304C75.0885 20.6773 75.1631 21.032 75.1951 21.368C75.2325 21.6987 75.2511 21.968 75.2511 22.176V27H73.2991ZM67.3071 27V18.36H69.0271V21.04H69.2591V27H67.3071ZM82.4028 27C81.8321 27.1067 81.2721 27.152 80.7228 27.136C80.1788 27.1253 79.6908 27.0267 79.2588 26.84C78.8268 26.648 78.4988 26.3467 78.2747 25.936C78.0774 25.5627 77.9734 25.1813 77.9628 24.792C77.9521 24.4027 77.9468 23.9627 77.9468 23.472V15.96H79.8668V23.36C79.8668 23.7067 79.8694 24.0107 79.8748 24.272C79.8854 24.5333 79.9414 24.7467 80.0428 24.912C80.2348 25.232 80.5414 25.4107 80.9628 25.448C81.3841 25.4853 81.8641 25.464 82.4028 25.384V27ZM76.3788 19.872V18.36H82.4028V19.872H76.3788ZM86.6766 27.24C86.0526 27.24 85.5246 27.1227 85.0926 26.888C84.6606 26.648 84.3326 26.3307 84.1086 25.936C83.89 25.5413 83.7806 25.1067 83.7806 24.632C83.7806 24.216 83.85 23.8427 83.9886 23.512C84.1273 23.176 84.3406 22.888 84.6286 22.648C84.9166 22.4027 85.29 22.2027 85.7486 22.048C86.0953 21.936 86.5006 21.8347 86.9646 21.744C87.434 21.6533 87.9406 21.5707 88.4846 21.496C89.034 21.416 89.6073 21.3307 90.2046 21.24L89.5166 21.632C89.522 21.0347 89.3886 20.5947 89.1166 20.312C88.8446 20.0293 88.386 19.888 87.7406 19.888C87.3513 19.888 86.9753 19.9787 86.6126 20.16C86.25 20.3413 85.9966 20.6533 85.8526 21.096L84.0926 20.544C84.306 19.8133 84.7113 19.2267 85.3086 18.784C85.9113 18.3413 86.722 18.12 87.7406 18.12C88.5086 18.12 89.1833 18.2453 89.7646 18.496C90.3513 18.7467 90.786 19.1573 91.0686 19.728C91.2233 20.032 91.3166 20.344 91.3486 20.664C91.3806 20.9787 91.3966 21.3227 91.3966 21.696V27H89.7086V25.128L89.9886 25.432C89.5993 26.056 89.1433 26.5147 88.6206 26.808C88.1033 27.096 87.4553 27.24 86.6766 27.24ZM87.0606 25.704C87.498 25.704 87.8713 25.6267 88.1806 25.472C88.49 25.3173 88.7353 25.128 88.9166 24.904C89.1033 24.68 89.2286 24.4693 89.2926 24.272C89.394 24.0267 89.45 23.7467 89.4606 23.432C89.4766 23.112 89.4846 22.8533 89.4846 22.656L90.0766 22.832C89.4953 22.9227 88.9966 23.0027 88.5806 23.072C88.1646 23.1413 87.8073 23.208 87.5086 23.272C87.21 23.3307 86.946 23.3973 86.7166 23.472C86.4926 23.552 86.3033 23.6453 86.1486 23.752C85.994 23.8587 85.874 23.9813 85.7886 24.12C85.7086 24.2587 85.6686 24.4213 85.6686 24.608C85.6686 24.8213 85.722 25.0107 85.8286 25.176C85.9353 25.336 86.09 25.464 86.2926 25.56C86.5006 25.656 86.7566 25.704 87.0606 25.704ZM97.2314 27.24C96.3407 27.24 95.5807 27.0427 94.9514 26.648C94.322 26.248 93.8394 25.704 93.5034 25.016C93.1727 24.328 93.0047 23.5493 92.9994 22.68C93.0047 21.7947 93.178 21.0107 93.5194 20.328C93.866 19.64 94.3567 19.1013 94.9914 18.712C95.626 18.3173 96.3807 18.12 97.2554 18.12C98.2367 18.12 99.066 18.368 99.7434 18.864C100.426 19.3547 100.871 20.0267 101.079 20.88L99.1594 21.4C99.01 20.936 98.762 20.576 98.4154 20.32C98.0687 20.0587 97.674 19.928 97.2314 19.928C96.73 19.928 96.3167 20.048 95.9914 20.288C95.666 20.5227 95.426 20.848 95.2714 21.264C95.1167 21.68 95.0394 22.152 95.0394 22.68C95.0394 23.5013 95.2234 24.1653 95.5914 24.672C95.9594 25.1787 96.506 25.432 97.2314 25.432C97.7434 25.432 98.146 25.3147 98.4394 25.08C98.738 24.8453 98.962 24.5067 99.1114 24.064L101.079 24.504C100.813 25.384 100.346 26.0613 99.6794 26.536C99.0127 27.0053 98.1967 27.24 97.2314 27.24ZM107.747 27C107.176 27.1067 106.616 27.152 106.067 27.136C105.523 27.1253 105.035 27.0267 104.603 26.84C104.171 26.648 103.843 26.3467 103.618 25.936C103.421 25.5627 103.317 25.1813 103.307 24.792C103.296 24.4027 103.291 23.9627 103.291 23.472V15.96H105.211V23.36C105.211 23.7067 105.213 24.0107 105.219 24.272C105.229 24.5333 105.285 24.7467 105.387 24.912C105.579 25.232 105.885 25.4107 106.307 25.448C106.728 25.4853 107.208 25.464 107.747 25.384V27ZM101.723 19.872V18.36H107.747V19.872H101.723Z" fill="white"/>
<defs>
<clipPath id="clip0_3_136">
<rect width="16" height="16" fill="white" transform="translate(16.5 13)"/>
</clipPath>
</defs>
</svg>
